{
  "info": {
    "count": 826,
    "pages": 42,
    "next": "https://rickandmortyapi.com/api/character/?page=2",
    "prev": null
  },

  "character": {
    "results": [
      {
        "name": "Ants in my Eyes Johnson",
        "status": "unknown",
        "species": "Human",
        "type": "Human with ants in his eyes",
        "image": "https://rickandmortyapi.com/api/character/avatar/1.jpeg",
        "gender": "Male",
        "id": 20
      },
      {
        "id": 2,
        "name": "Morty Smith",
        "status": "Alive",
        "species": "Human",
        "type": "",
        "image": "https://rickandmortyapi.com/api/character/avatar/2.jpeg",
        "gender": "Male"
      }
    ]
  }
}
